^C:\PROGRAM FILES (X86)\STEAM\STEAMAPPS\COMMON\EMERGENCY 2017\SDK\SAMPLE_PLUGINS\PLUGIN_AMS_EVENT\TMP\VC11\X64_RELEASE\GAME_PLUGIN\MAIN.OBJ|C:\PROGRAM FILES (X86)\STEAM\STEAMAPPS\COMMON\EMERGENCY 2017\SDK\SAMPLE_PLUGINS\PLUGIN_AMS_EVENT\TMP\VC11\X64_RELEASE\GAME_PLUGIN\PLUGIN.OBJ|C:\PROGRAM FILES (X86)\STEAM\STEAMAPPS\COMMON\EMERGENCY 2017\SDK\SAMPLE_PLUGINS\PLUGIN_AMS_EVENT\TMP\VC11\X64_RELEASE\GAME_PLUGIN\PRECOMPILEDHEADER.OBJ
C:\WINDOWS\GLOBALIZATION\SORTING\SORTDEFAULT.NLS
C:\PROGRAM FILES (X86)\STEAM\STEAMAPPS\COMMON\EMERGENCY 2017\SDK\PLUGIN_API\EXTERNAL\_WINDOWS_X64\CAMP\LIB\CAMP.LIB
C:\PROGRAM FILES (X86)\STEAM\STEAMAPPS\COMMON\EMERGENCY 2017\SDK\PLUGIN_API\LIB\X64R\QSF.LIB
C:\PROGRAM FILES (X86)\STEAM\STEAMAPPS\COMMON\EMERGENCY 2017\SDK\PLUGIN_API\LIB\X64R\QSF_COMPOSITING.LIB
C:\PROGRAM FILES (X86)\STEAM\STEAMAPPS\COMMON\EMERGENCY 2017\SDK\PLUGIN_API\LIB\X64R\QSF_AI.LIB
C:\PROGRAM FILES (X86)\STEAM\STEAMAPPS\COMMON\EMERGENCY 2017\SDK\PLUGIN_API\LIB\X64R\QSF_EDITOR_BASE.LIB
C:\PROGRAM FILES (X86)\STEAM\STEAMAPPS\COMMON\EMERGENCY 2017\SDK\PLUGIN_API\LIB\X64R\QSF_EDITOR.LIB
C:\PROGRAM FILES (X86)\STEAM\STEAMAPPS\COMMON\EMERGENCY 2017\SDK\PLUGIN_API\LIB\X64R\QSF_GAME.LIB
C:\PROGRAM FILES (X86)\STEAM\STEAMAPPS\COMMON\EMERGENCY 2017\SDK\PLUGIN_API\LIB\X64R\EM5.LIB
C:\PROGRAM FILES (X86)\WINDOWS KITS\8.1\LIB\WINV6.3\UM\X64\KERNEL32.LIB
C:\PROGRAM FILES (X86)\WINDOWS KITS\8.1\LIB\WINV6.3\UM\X64\USER32.LIB
C:\PROGRAM FILES (X86)\WINDOWS KITS\8.1\LIB\WINV6.3\UM\X64\GDI32.LIB
C:\PROGRAM FILES (X86)\WINDOWS KITS\8.1\LIB\WINV6.3\UM\X64\WINSPOOL.LIB
C:\PROGRAM FILES (X86)\WINDOWS KITS\8.1\LIB\WINV6.3\UM\X64\COMDLG32.LIB
C:\PROGRAM FILES (X86)\WINDOWS KITS\8.1\LIB\WINV6.3\UM\X64\ADVAPI32.LIB
C:\PROGRAM FILES (X86)\WINDOWS KITS\8.1\LIB\WINV6.3\UM\X64\SHELL32.LIB
C:\PROGRAM FILES (X86)\WINDOWS KITS\8.1\LIB\WINV6.3\UM\X64\OLE32.LIB
C:\PROGRAM FILES (X86)\WINDOWS KITS\8.1\LIB\WINV6.3\UM\X64\OLEAUT32.LIB
C:\PROGRAM FILES (X86)\WINDOWS KITS\8.1\LIB\WINV6.3\UM\X64\UUID.LIB
C:\PROGRAM FILES (X86)\WINDOWS KITS\8.1\LIB\WINV6.3\UM\X64\ODBC32.LIB
C:\PROGRAM FILES (X86)\WINDOWS KITS\8.1\LIB\WINV6.3\UM\X64\ODBCCP32.LIB
C:\PROGRAM FILES (X86)\STEAM\STEAMAPPS\COMMON\EMERGENCY 2017\SDK\SAMPLE_PLUGINS\PLUGIN_AMS_EVENT\TMP\VC11\X64_RELEASE\GAME_PLUGIN\MAIN.OBJ
C:\PROGRAM FILES (X86)\STEAM\STEAMAPPS\COMMON\EMERGENCY 2017\SDK\SAMPLE_PLUGINS\PLUGIN_AMS_EVENT\TMP\VC11\X64_RELEASE\GAME_PLUGIN\PLUGIN.OBJ
C:\PROGRAM FILES (X86)\STEAM\STEAMAPPS\COMMON\EMERGENCY 2017\SDK\SAMPLE_PLUGINS\PLUGIN_AMS_EVENT\TMP\VC11\X64_RELEASE\GAME_PLUGIN\PRECOMPILEDHEADER.OBJ
C:\PROGRAM FILES (X86)\MICROSOFT VISUAL STUDIO\VC\LIB\AMD64\MSVCPRT.LIB
C:\PROGRAM FILES (X86)\STEAM\STEAMAPPS\COMMON\EMERGENCY 2017\SDK\PLUGIN_API\EXTERNAL\_WINDOWS_X64\TBB\LIB\TBBMALLOC_PROXY.LIB
C:\PROGRAM FILES (X86)\MICROSOFT VISUAL STUDIO\VC\LIB\AMD64\MSVCRT.LIB
C:\PROGRAM FILES (X86)\MICROSOFT VISUAL STUDIO\VC\LIB\AMD64\OLDNAMES.LIB
C:\PROGRAM FILES (X86)\MICROSOFT VISUAL STUDIO\VC\LIB\AMD64\VCRUNTIME.LIB
C:\PROGRAM FILES (X86)\WINDOWS KITS\10\LIB\10.0.10240.0\UCRT\X64\UCRT.LIB
C:\WINDOWS\SYSTEM32\TZRES.DLL
C:\PROGRAM FILES (X86)\MICROSOFT VISUAL STUDIO\VC\BIN\X86_AMD64\1031\LINKUI.DLL
C:\PROGRAM FILES (X86)\WINDOWS KITS\8.1\BIN\X86\RC.EXE
C:\PROGRAM FILES (X86)\MICROSOFT VISUAL STUDIO\VC\BIN\CVTRES.EXE
